<svg width="82" height="106" viewBox="0 0 82 106" fill="none" xmlns="http://www.w3.org/2000/svg">
<path d="M81.1953 14.1377V105.5H0.804688V14.1377H18.8495V17.2139H61.5099V14.1377H81.1953Z" fill="#DBF2D0"/>
<path d="M63.9109 65.2021C63.9109 77.9067 53.6447 88.2139 40.9565 88.2796C40.9155 88.2816 40.8725 88.2816 40.8314 88.2816C28.0858 88.2816 17.752 77.9477 17.752 65.2021C17.752 52.4545 28.0858 42.1226 40.8314 42.1226C40.8725 42.1226 40.9155 42.1226 40.9565 42.1247C53.6447 42.1903 63.9109 52.4955 63.9109 65.2021Z" fill="#BDE239"/>
<path d="M54.7359 60.6822L40.9567 73.2986L37.6099 76.3625L26.8433 65.7148L31.1684 61.3405L37.7739 67.8702L40.9567 64.956L50.5811 56.1438L54.7359 60.6822Z" fill="#F0F9FF"/>
<path d="M66.4459 9.14404V25.5359H15.5537V9.14404H29.0663C29.8887 6.63594 31.4801 4.47441 33.5616 2.94043C35.6329 1.41465 38.1882 0.510254 40.9567 0.5H40.9998C46.5677 0.5 51.2886 4.12578 52.9333 9.14404H66.4459Z" fill="#FFB721"/>
<path d="M66.4462 9.14404V25.5359H40.957V0.5H41.0001C46.568 0.5 51.2889 4.12578 52.9336 9.14404H66.4462Z" fill="#FE9B2A"/>
</svg>
